Fiona’s plotly page
…
Downsample

rest_inspec = 
rest_inspec %>% 
  select(boro, cuisine_description, grade, score, dba, inspection_date) %>% 
  filter(grade %in% c("A", "B", "C"), boro != "Missing") %>% 
  drop_na() %>% 
  sample_n(20000)

rest_inspec

## # A tibble: 20,000 × 6
##    boro      cuisine_description           grade score dba   inspection_date    
##    <chr>     <chr>                         <chr> <int> <chr> <dttm>             
##  1 BROOKLYN  American                      A         9 EDDI… 2016-04-13 00:00:00
##  2 MANHATTAN CafÃ©/Coffee/Tea              A        13 CAFF… 2017-04-14 00:00:00
##  3 BROOKLYN  Barbecue                      A        11 DALL… 2014-05-12 00:00:00
##  4 MANHATTAN Mexican                       B        16 CASC… 2015-10-08 00:00:00
##  5 MANHATTAN American                      A        11 CORB… 2017-07-12 00:00:00
##  6 MANHATTAN Seafood                       A        10 LUKE… 2013-08-05 00:00:00
##  7 MANHATTAN American                      A        12 RAY'… 2015-10-05 00:00:00
##  8 QUEENS    Peruvian                      A        12 TU C… 2014-05-28 00:00:00
##  9 QUEENS    Chicken                       A        10 BBQ … 2015-02-12 00:00:00
## 10 BRONX     Latin (Cuban, Dominican, Pue… B        18 LA C… 2016-05-17 00:00:00
## # … with 19,990 more rows
…
